{
  "messageVersion": "1.0",
  "invocationSource": "FulfillmentCodeHook",
  "inputTranscript": "call Cardiologist",
  "sessionAttributes": {},
  "bot": {
    "name": "DigitalHumanBot",
    "alias": "Beta",
    "version": "$LATEST"
  },
  "outputDialogMode": "Text",
  "currentIntent": {
    "name": "SpecialistQuery",
    "slots": {
      "SpecialistCall": "Cardiologist"
    },
    "confirmationStatus": "None"
  }
}
